^C:\USERS\JELENA\DESKTOP\CHANNELCOMBINATIONALGORITHM\CHANNELSCOMBINATIONALGORITHM\CHANNELCOMBINATIONALGORITHM\MODEL2\FIXED_POINT_MATH.CPP
/c /ZI /nologo /W3 /WX- /Od /Oy- /D WIN32 /D _DEBUG /D _CONSOLE /D _UNICODE /D UNICODE /Gm /EHsc /RTC1 /MDd /GS /fp:precise /Zc:wchar_t /Zc:forScope /Fo"Debug\\" /Fd"Debug\vc100.pdb" /Gd /TP /analyze- /errorReport:prompt C:\USERS\JELENA\DESKTOP\CHANNELCOMBINATIONALGORITHM\CHANNELSCOMBINATIONALGORITHM\CHANNELCOMBINATIONALGORITHM\MODEL2\FIXED_POINT_MATH.CPP
^C:\USERS\JELENA\DESKTOP\CHANNELCOMBINATIONALGORITHM\CHANNELSCOMBINATIONALGORITHM\CHANNELCOMBINATIONALGORITHM\MODEL2\MAIN.CPP
/c /ZI /nologo /W3 /WX- /Od /Oy- /D WIN32 /D _DEBUG /D _CONSOLE /D _UNICODE /D UNICODE /Gm /EHsc /RTC1 /MDd /GS /fp:precise /Zc:wchar_t /Zc:forScope /Fo"Debug\\" /Fd"Debug\vc100.pdb" /Gd /TP /analyze- /errorReport:prompt C:\USERS\JELENA\DESKTOP\CHANNELCOMBINATIONALGORITHM\CHANNELSCOMBINATIONALGORITHM\CHANNELCOMBINATIONALGORITHM\MODEL2\MAIN.CPP
^C:\USERS\JELENA\DESKTOP\CHANNELCOMBINATIONALGORITHM\CHANNELSCOMBINATIONALGORITHM\CHANNELCOMBINATIONALGORITHM\MODEL2\STDFIX_EMU.CPP
/c /ZI /nologo /W3 /WX- /Od /Oy- /D WIN32 /D _DEBUG /D _CONSOLE /D _UNICODE /D UNICODE /Gm /EHsc /RTC1 /MDd /GS /fp:precise /Zc:wchar_t /Zc:forScope /Fo"Debug\\" /Fd"Debug\vc100.pdb" /Gd /TP /analyze- /errorReport:prompt C:\USERS\JELENA\DESKTOP\CHANNELCOMBINATIONALGORITHM\CHANNELSCOMBINATIONALGORITHM\CHANNELCOMBINATIONALGORITHM\MODEL2\STDFIX_EMU.CPP
^C:\USERS\JELENA\DESKTOP\CHANNELCOMBINATIONALGORITHM\CHANNELSCOMBINATIONALGORITHM\CHANNELCOMBINATIONALGORITHM\MODEL2\WAVHEADER.CPP
/c /ZI /nologo /W3 /WX- /Od /Oy- /D WIN32 /D _DEBUG /D _CONSOLE /D _UNICODE /D UNICODE /Gm /EHsc /RTC1 /MDd /GS /fp:precise /Zc:wchar_t /Zc:forScope /Fo"Debug\\" /Fd"Debug\vc100.pdb" /Gd /TP /analyze- /errorReport:prompt C:\USERS\JELENA\DESKTOP\CHANNELCOMBINATIONALGORITHM\CHANNELSCOMBINATIONALGORITHM\CHANNELCOMBINATIONALGORITHM\MODEL2\WAVHEADER.CPP
