^C:\USERS\JELENA\DESKTOP\CHANNELCOMBINATIONALGORITHM\CHANNELSCOMBINATIONALGORITHM\CHANNELCOMBINATIONALGORITHM\MODEL2\DEBUG\FIXED_POINT_MATH.OBJ|C:\USERS\JELENA\DESKTOP\CHANNELCOMBINATIONALGORITHM\CHANNELSCOMBINATIONALGORITHM\CHANNELCOMBINATIONALGORITHM\MODEL2\DEBUG\MAIN.OBJ|C:\USERS\JELENA\DESKTOP\CHANNELCOMBINATIONALGORITHM\CHANNELSCOMBINATIONALGORITHM\CHANNELCOMBINATIONALGORITHM\MODEL2\DEBUG\MODEL2.EXE.EMBED.MANIFEST.RES|C:\USERS\JELENA\DESKTOP\CHANNELCOMBINATIONALGORITHM\CHANNELSCOMBINATIONALGORITHM\CHANNELCOMBINATIONALGORITHM\MODEL2\DEBUG\STDFIX_EMU.OBJ|C:\USERS\JELENA\DESKTOP\CHANNELCOMBINATIONALGORITHM\CHANNELSCOMBINATIONALGORITHM\CHANNELCOMBINATIONALGORITHM\MODEL2\DEBUG\WAVHEADER.OBJ
/ERRORREPORT:PROMPT /OUT:"C:\Users\Jelena\Desktop\ChannelCombinationAlgorithm\ChannelsCombinationAlgorithm\ChannelCombinationAlgorithm\Debug\model2.exe" /INCREMENTAL /NOLOGO kernel32.lib user32.lib gdi32.lib winspool.lib comdlg32.lib advapi32.lib shell32.lib ole32.lib oleaut32.lib uuid.lib odbc32.lib odbccp32.lib /MANIFEST /ManifestFile:"Debug\model2.exe.intermediate.manifest" /MANIFESTUAC:"level='asInvoker' uiAccess='false'" /DEBUG /PDB:"C:\Users\Jelena\Desktop\ChannelCombinationAlgorithm\ChannelsCombinationAlgorithm\ChannelCombinationAlgorithm\Debug\model2.pdb" /SUBSYSTEM:CONSOLE /TLBID:1 /DYNAMICBASE /NXCOMPAT /IMPLIB:"C:\Users\Jelena\Desktop\ChannelCombinationAlgorithm\ChannelsCombinationAlgorithm\ChannelCombinationAlgorithm\Debug\model2.lib" /MACHINE:X86 Debug\model2.exe.embed.manifest.res
Debug\fixed_point_math.obj
Debug\main.obj
Debug\stdfix_emu.obj
Debug\WAVheader.obj
