^C:\USERS\JELENA\DESKTOP\CHANNELCOMBINATIONALGORITHM\CHANNELSCOMBINATIONALGORITHM\CHANNELCOMBINATIONALGORITHM\MODEL2\DEBUG\FIXED_POINT_MATH.OBJ|C:\USERS\JELENA\DESKTOP\CHANNELCOMBINATIONALGORITHM\CHANNELSCOMBINATIONALGORITHM\CHANNELCOMBINATIONALGORITHM\MODEL2\DEBUG\MAIN.OBJ|C:\USERS\JELENA\DESKTOP\CHANNELCOMBINATIONALGORITHM\CHANNELSCOMBINATIONALGORITHM\CHANNELCOMBINATIONALGORITHM\MODEL2\DEBUG\MODEL2.EXE.EMBED.MANIFEST.RES|C:\USERS\JELENA\DESKTOP\CHANNELCOMBINATIONALGORITHM\CHANNELSCOMBINATIONALGORITHM\CHANNELCOMBINATIONALGORITHM\MODEL2\DEBUG\STDFIX_EMU.OBJ|C:\USERS\JELENA\DESKTOP\CHANNELCOMBINATIONALGORITHM\CHANNELSCOMBINATIONALGORITHM\CHANNELCOMBINATIONALGORITHM\MODEL2\DEBUG\WAVHEADER.OBJ
C:\USERS\JELENA\DESKTOP\CHANNELCOMBINATIONALGORITHM\CHANNELSCOMBINATIONALGORITHM\CHANNELCOMBINATIONALGORITHM\DEBUG\MODEL2.ILK
C:\USERS\JELENA\DESKTOP\CHANNELCOMBINATIONALGORITHM\CHANNELSCOMBINATIONALGORITHM\CHANNELCOMBINATIONALGORITHM\DEBUG\MODEL2.EXE
C:\USERS\JELENA\DESKTOP\CHANNELCOMBINATIONALGORITHM\CHANNELSCOMBINATIONALGORITHM\CHANNELCOMBINATIONALGORITHM\MODEL2\DEBUG\MODEL2.EXE.INTERMEDIATE.MANIFEST
C:\USERS\JELENA\DESKTOP\CHANNELCOMBINATIONALGORITHM\CHANNELSCOMBINATIONALGORITHM\CHANNELCOMBINATIONALGORITHM\DEBUG\MODEL2.PDB
